#
# There is insufficient memory for the Java Runtime Environment to continue.
# Native memory allocation (mmap) failed to map 262144000 bytes for Failed to commit area from 0x00000006c6000000 to 0x00000006d5a00000 of length 262144000.
# Possible reasons:
#   The system is out of physical RAM or swap space
#   The process is running with CompressedOops enabled, and the Java Heap may be blocking the growth of the native heap
# Possible solutions:
#   Reduce memory load on the system
#   Increase physical memory or swap space
#   Check if swap backing store is full
#   Decrease Java heap size (-Xmx/-Xms)
#   Decrease number of Java threads
#   Decrease Java thread stack sizes (-Xss)
#   Set larger code cache with -XX:ReservedCodeCacheSize=
# This output file may be truncated or incomplete.
#
#  Out of Memory Error (t:/workspace/hotspot/src/os/windows/vm/os_windows.cpp:3357), pid=28904, tid=29536
#
# JRE version:  (9.0+11) (build )
# Java VM: Java HotSpot(TM) 64-Bit Server VM (9.0.4+11, mixed mode, tiered, compressed oops, g1 gc, windows-amd64)
# No core dump will be written. Minidumps are not enabled by default on client versions of Windows
#

---------------  S U M M A R Y ------------

Command Line: -Dfile.encoding=UTF-8 control.Start

Host: Intel(R) Core(TM) i7-7700HQ CPU @ 2.80GHz, 8 cores, 15G,  Windows 10 , 64 bit Build 17134 (10.0.17134.1)
Time: Mon May 21 20:15:51 2018 GTB Daylight Time elapsed time: 0 seconds (0d 0h 0m 0s)

---------------  T H R E A D  ---------------

Current thread (0x0000024294f6e000):  JavaThread "Unknown thread" [_thread_in_vm, id=29536, stack(0x0000005375e00000,0x0000005375f00000)]

Stack: [0x0000005375e00000,0x0000005375f00000]
Native frames: (J=compiled Java code, j=interpreted, Vv=VM code, C=native code)
V  [jvm.dll+0x587068]
V  [jvm.dll+0x69c25e]
V  [jvm.dll+0x69d17a]
V  [jvm.dll+0x69d7b3]
V  [jvm.dll+0x21d198]
V  [jvm.dll+0x584bb4]
V  [jvm.dll+0x57a095]
V  [jvm.dll+0x2cd67b]
V  [jvm.dll+0x2cd5e3]
V  [jvm.dll+0x2cd4b2]
V  [jvm.dll+0x2cf4b3]
V  [jvm.dll+0x3191e3]
V  [jvm.dll+0x3198f6]
V  [jvm.dll+0x3192e3]
V  [jvm.dll+0x2adeb8]
V  [jvm.dll+0x2af0e7]
V  [jvm.dll+0x67b34d]
V  [jvm.dll+0x67c70c]
V  [jvm.dll+0x3269c9]
V  [jvm.dll+0x66555e]
V  [jvm.dll+0x391811]
V  [jvm.dll+0x3937c1]
C  [javaw.exe+0x3501]
C  [javaw.exe+0xe25f]
C  [javaw.exe+0xe406]
C  [KERNEL32.DLL+0x13034]
C  [ntdll.dll+0x71551]


---------------  P R O C E S S  ---------------

Java Threads: ( => current thread )

Other Threads:
  0x0000024294f86800 GCTaskThread "GC Thread#0" [stack: 0x0000005375f00000,0x0000005376000000] [id=25880]
  0x0000024294f88000 GCTaskThread "GC Thread#1" [stack: 0x0000005376000000,0x0000005376100000] [id=4704]
  0x0000024294f8b000 GCTaskThread "GC Thread#2" [stack: 0x0000005376100000,0x0000005376200000] [id=30332]
  0x0000024294f98000 GCTaskThread "GC Thread#3" [stack: 0x0000005376200000,0x0000005376300000] [id=26144]
  0x0000024294f95800 GCTaskThread "GC Thread#4" [stack: 0x0000005376300000,0x0000005376400000] [id=27404]
  0x0000024294f96800 GCTaskThread "GC Thread#5" [stack: 0x0000005376400000,0x0000005376500000] [id=29928]
  0x0000024294f96000 GCTaskThread "GC Thread#6" [stack: 0x0000005376500000,0x0000005376600000] [id=27300]
  0x0000024294f94800 GCTaskThread "GC Thread#7" [stack: 0x0000005376600000,0x0000005376700000] [id=9908]
  0x0000024295012800 ConcurrentGCThread "G1 Main Marker" [stack: 0x0000005377000000,0x0000005377100000] [id=29496]
  0x0000024294f98800 ConcurrentGCThread "G1 Marker#0" [stack: 0x0000005377100000,0x0000005377200000] [id=29600]
  0x0000024294f97000 ConcurrentGCThread "G1 Marker#1" [stack: 0x0000005377200000,0x0000005377300000] [id=27664]
  0x0000024294fbe800 ConcurrentGCThread "G1 Refine#0" [stack: 0x0000005376e00000,0x0000005376f00000] [id=15100]
  0x0000024294fbc000 ConcurrentGCThread "G1 Refine#1" [stack: 0x0000005376d00000,0x0000005376e00000] [id=30372]
  0x0000024294fbb000 ConcurrentGCThread "G1 Refine#2" [stack: 0x0000005376c00000,0x0000005376d00000] [id=30580]
  0x0000024294fb4800 ConcurrentGCThread "G1 Refine#3" [stack: 0x0000005376b00000,0x0000005376c00000] [id=13488]
  0x0000024294fb2800 ConcurrentGCThread "G1 Refine#4" [stack: 0x0000005376a00000,0x0000005376b00000] [id=3648]
  0x0000024294fac000 ConcurrentGCThread "G1 Refine#5" [stack: 0x0000005376900000,0x0000005376a00000] [id=27308]
  0x0000024294fa9000 ConcurrentGCThread "G1 Refine#6" [stack: 0x0000005376800000,0x0000005376900000] [id=29612]
  0x0000024294fa4800 ConcurrentGCThread "G1 Refine#7" [stack: 0x0000005376700000,0x0000005376800000] [id=30316]
  0x0000024294fbf800 ConcurrentGCThread "G1 Young RemSet Sampling" [stack: 0x0000005376f00000,0x0000005377000000] [id=7092]

=>0x0000024294f6e000 (exited) JavaThread "Unknown thread" [_thread_in_vm, id=29536, stack(0x0000005375e00000,0x0000005375f00000)]

Threads with active compile tasks:

VM state:not at safepoint (not fully initialized)

VM Mutex/Monitor currently owned by a thread:  ([mutex/lock_event])
[0x0000024294f6bcc0] Heap_lock - owner thread: 0x0000024294f6e000

Heap address: 0x00000006c6000000, size: 4000 MB, Compressed Oops mode: Non-zero based: 0x00000006c6000000
Narrow klass base: 0x0000000000000000, Narrow klass shift: 0

GC Heap History (0 events):
No events

Deoptimization events (0 events):
No events

Classes redefined (0 events):
No events

Internal exceptions (0 events):
No events

Events (0 events):
No events


Dynamic libraries:
0x00007ff6d1ef0000 - 0x00007ff6d1f2e000 	C:\Program Files\Java\jdk-9.0.4\bin\javaw.exe
0x00007ffaf51e0000 - 0x00007ffaf53c1000 	C:\WINDOWS\SYSTEM32\ntdll.dll
0x00007ffab8640000 - 0x00007ffab8674000 	C:\Program Files\AVAST Software\Avast\x64\aswhooka.dll
0x00007ffaf4ff0000 - 0x00007ffaf50a2000 	C:\WINDOWS\System32\KERNEL32.DLL
0x00007ffaf1920000 - 0x00007ffaf1b93000 	C:\WINDOWS\System32\KERNELBASE.dll
0x00007ffaf2ba0000 - 0x00007ffaf2c41000 	C:\WINDOWS\System32\ADVAPI32.dll
0x00007ffaf2e50000 - 0x00007ffaf2eee000 	C:\WINDOWS\System32\msvcrt.dll
0x00007ffaf4b20000 - 0x00007ffaf4b7b000 	C:\WINDOWS\System32\sechost.dll
0x00007ffaf27f0000 - 0x00007ffaf2914000 	C:\WINDOWS\System32\RPCRT4.dll
0x00007ffaf4e60000 - 0x00007ffaf4ff0000 	C:\WINDOWS\System32\USER32.dll
0x00007ffaf2650000 - 0x00007ffaf2670000 	C:\WINDOWS\System32\win32u.dll
0x00007ffaf50b0000 - 0x00007ffaf50d8000 	C:\WINDOWS\System32\GDI32.dll
0x00007ffaf2450000 - 0x00007ffaf25e2000 	C:\WINDOWS\System32\gdi32full.dll
0x00007ffaf23b0000 - 0x00007ffaf244f000 	C:\WINDOWS\System32\msvcp_win.dll
0x00007ffaf1ba0000 - 0x00007ffaf1c9a000 	C:\WINDOWS\System32\ucrtbase.dll
0x00007ffae5b80000 - 0x00007ffae5de9000 	C:\WINDOWS\WinSxS\amd64_microsoft.windows.common-controls_6595b64144ccf1df_6.0.17134.48_none_b4b2216a3cb4dd3e\COMCTL32.dll
0x00007ffaf47f0000 - 0x00007ffaf4b13000 	C:\WINDOWS\System32\combase.dll
0x00007ffaf15b0000 - 0x00007ffaf162a000 	C:\WINDOWS\System32\bcryptPrimitives.dll
0x00007ffae98f0000 - 0x00007ffae98fa000 	C:\WINDOWS\SYSTEM32\VERSION.dll
0x00007ffaf2b70000 - 0x00007ffaf2b9d000 	C:\WINDOWS\System32\IMM32.DLL
0x00007ffae0de0000 - 0x00007ffae0ecf000 	C:\Program Files\Java\jdk-9.0.4\bin\msvcr120.dll
0x00007ffadeff0000 - 0x00007ffadf096000 	C:\Program Files\Java\jdk-9.0.4\bin\msvcp120.dll
0x000000006c4a0000 - 0x000000006cec5000 	C:\Program Files\Java\jdk-9.0.4\bin\server\jvm.dll
0x00007ffaf4780000 - 0x00007ffaf4788000 	C:\WINDOWS\System32\PSAPI.DLL
0x00007ffade920000 - 0x00007ffade929000 	C:\WINDOWS\SYSTEM32\WSOCK32.dll
0x00007ffaf2c50000 - 0x00007ffaf2cbc000 	C:\WINDOWS\System32\WS2_32.dll
0x00007ffaec7b0000 - 0x00007ffaec7d3000 	C:\WINDOWS\SYSTEM32\WINMM.dll
0x00007ffaec770000 - 0x00007ffaec79a000 	C:\WINDOWS\SYSTEM32\WINMMBASE.dll
0x00007ffaf18d0000 - 0x00007ffaf1919000 	C:\WINDOWS\System32\cfgmgr32.dll
0x00007ffaebff0000 - 0x00007ffaebfff000 	C:\Program Files\Java\jdk-9.0.4\bin\verify.dll
0x00007ffae1540000 - 0x00007ffae1567000 	C:\Program Files\Java\jdk-9.0.4\bin\java.dll
0x00007ffaebfd0000 - 0x00007ffaebfe6000 	C:\Program Files\Java\jdk-9.0.4\bin\zip.dll
0x00007ffae4930000 - 0x00007ffae493a000 	C:\Program Files\Java\jdk-9.0.4\bin\jimage.dll
0x00007ffaeff90000 - 0x00007ffaf0159000 	C:\WINDOWS\SYSTEM32\dbghelp.dll

VM Arguments:
jvm_args: -Dfile.encoding=UTF-8 
java_command: control.Start
java_class_path (initial): D:\PT2018\pt2018_30424_fagetan_cristina_assignment_4\Homework4\target\classes
Launcher Type: SUN_STANDARD

Logging:
Log output configuration:
#0: stdout all=warning uptime,level,tags
#1: stderr all=off uptime,level,tags

Environment Variables:
JAVA_HOME=C:\Program Files\Java\jdk-9.0.4
PATH=C:\ProgramData\Oracle\Java\javapath;C:\WINDOWS\system32;C:\WINDOWS;C:\WINDOWS\System32\Wbem;C:\WINDOWS\System32\WindowsPowerShell\v1.0\;C:\Program Files\Java\jdk-9.0.4\bin;C:\Program Files\Java\jre-9.0.4\bin;C:\Program Files\dotnet\;C:\Program Files\Git\cmd;C:\Program Files\Microsoft SQL Server\110\Tools\Binn\;C:\Program Files (x86)\Microsoft SDKs\TypeScript\1.0\;C:\Program Files\Microsoft SQL Server\120\Tools\Binn\;C:\WINDOWS\System32\OpenSSH\;C:\Users\Cristina\AppData\Local\Microsoft\WindowsApps;C:\Users\Cristina\AppData\Local\GitHubDesktop\bin;%USERPROFILE%\AppData\Local\Microsoft\WindowsApps;
USERNAME=Cristina
OS=Windows_NT
PROCESSOR_IDENTIFIER=Intel64 Family 6 Model 158 Stepping 9, GenuineIntel



---------------  S Y S T E M  ---------------

OS: Windows 10 , 64 bit Build 17134 (10.0.17134.1)

CPU:total 8 (initial active 8) (4 cores per cpu, 2 threads per core) family 6 model 158 stepping 9, cmov, cx8, fxsr, mmx, sse, sse2, sse3, ssse3, sse4.1, sse4.2, popcnt, avx, avx2, aes, clmul, erms, 3dnowpref, lzcnt, ht, tsc, tscinvbit, bmi1, bmi2, adx, fma

Memory: 4k page, physical 16380360k(8383760k free), swap 43727172k(115020k free)

vm_info: Java HotSpot(TM) 64-Bit Server VM (9.0.4+11) for windows-amd64 JRE (9.0.4+11), built on Dec 20 2017 02:18:54 by "mach5one" with MS VC++ 12.0 (VS2013)

END.
